{
  "lang":"en",
  "name":"pipeline",
  "version":"0.0.0",
  "spacy_version":">=3.5.2,<3.6.0",
  "description":"",
  "author":"",
  "email":"",
  "url":"",
  "license":"",
  "spacy_git_version":"Unknown",
  "vectors":{
    "width":0,
    "vectors":0,
    "keys":0,
    "name":null,
    "mode":"default"
  },
  "labels":{
    "tok2vec":[

    ],
    "ner":[
      "OS",
      "PROGRAMMING_LANGUAGE",
      "RTOS"
    ]
  },
  "pipeline":[
    "tok2vec",
    "ner"
  ],
  "components":[
    "tok2vec",
    "ner"
  ],
  "disabled":[

  ],
  "performance":{
    "ents_f":0.9937444147,
    "ents_p":0.9902048085,
    "ents_r":0.997309417,
    "ents_per_type":{
      "OS":{
        "p":1.0,
        "r":0.9924242424,
        "f":0.9961977186
      },
      "PROGRAMMING_LANGUAGE":{
        "p":0.9891186072,
        "r":0.9989010989,
        "f":0.9939857846
      },
      "RTOS":{
        "p":0.9863013699,
        "r":0.9863013699,
        "f":0.9863013699
      }
    },
    "tok2vec_loss":370.2872344342,
    "ner_loss":154.7089565561
  }
}