{
  "lang":"en",
  "name":"pipeline",
  "version":"0.0.0",
  "spacy_version":">=3.5.2,<3.6.0",
  "description":"",
  "author":"",
  "email":"",
  "url":"",
  "license":"",
  "spacy_git_version":"Unknown",
  "vectors":{
    "width":0,
    "vectors":0,
    "keys":0,
    "name":null,
    "mode":"default"
  },
  "labels":{
    "tok2vec":[

    ],
    "ner":[
      "DOMAIN",
      "HARDWARE",
      "OS",
      "PROGRAMMING_LANGUAGE",
      "RTOS",
      "TOOL"
    ]
  },
  "pipeline":[
    "tok2vec",
    "ner"
  ],
  "components":[
    "tok2vec",
    "ner"
  ],
  "disabled":[

  ],
  "performance":{
    "ents_f":0.9691889443,
    "ents_p":0.9656884876,
    "ents_r":0.9727148704,
    "ents_per_type":{
      "DOMAIN":{
        "p":0.9571115974,
        "r":0.9772117962,
        "f":0.9670572629
      },
      "HARDWARE":{
        "p":0.9538461538,
        "r":0.9393939394,
        "f":0.9465648855
      },
      "OS":{
        "p":1.0,
        "r":1.0,
        "f":1.0
      },
      "PROGRAMMING_LANGUAGE":{
        "p":0.9872935197,
        "r":0.9568965517,
        "f":0.9718574109
      },
      "TOOL":{
        "p":0.9654403567,
        "r":0.9807474519,
        "f":0.9730337079
      },
      "RTOS":{
        "p":0.9846153846,
        "r":0.9846153846,
        "f":0.9846153846
      }
    },
    "tok2vec_loss":798.2113899661,
    "ner_loss":1543.7503842198
  }
}