File Name,Tools,Hardwares,Domains
AnithaRanganathan_7695033_-09_00-_1.pdf,"{'Indira', 'Tableau', 'origin'}",{'Receivables'},"{'Seaborn', 'Decision Tree', 'Pandas', 'CNN', 'API', 'Tf - IDF Vectorization', 'SVM', 'machine learning', 'OpenCV', 'BERT', 'Data Science', 'Deep Learning', 'KNN', 'Natural Language Processing', 'predictive', 'database', 'Logistic Regression', 'Machine Learning', 'Matplotlib', 'Random Forest', 'RNN', 'AI', 'Numpy', 'Artiﬁcial Intelligence', 'ANN', 'UI', 'ML', 'LSTM', 'Reinforcement Learning', 'NLP', 'Data Analytics', 'Data Scientist', 'Scikit Learn'}"
AnimeshChoudhury_7691361_-02_04-_1.pdf,"{'Count Vectorizer', 'GitHub'}",,"{'data mining', 'Seaborn', 'Decision Tree', 'TFIDF', 'TextBlob', 'Pandas', 'Linear & Logistics Reg', 'CNN', ""K Nearest Neighbor 's"", 'Deep Learning', 'NLTK', 'word2vec', 'sent2vec', 'Social Media', 'Machine Learning', '- Neural Networks', 'Matplotlib', 'Random Forest', 'Numpy', 'ANN', 'K Means Clustering', 'Git', 'doc2vec', 'Tensorﬂow', 'Machine', 'NLP', 'OOPs', 'Data Analysis'}"
venkatramanaresume.pdf,"{'Flash Magic', 'GSB', 'Clear', 'Xplorer', 'ADB', 'FAR'}","{'MTK - Series', 'Exynos5', 'chipsets', '8051', 'ARM', 'Qualcomm - series'}","{'UART', 'Booting', 'debugging', 'Embedded', 'Error logs', 'I2C', 'Firmware Validation', 'RWR', 'SPI', 'cloning', 'Automation', 'testing', 'Firmware Loading', 'Cloning', 'Kernel', 'logcat', 'Debugging', 'logs', 'failures logs'}"
AnjuYadav_7694331_-03_07-_1.pdf,"{'Zoho', 'Tableau', 'Power BI', 'AOV', 'GitHub', 'Power BI cloud', 'QC', 'MS - Excel', 'PG', 'Athena', 'Power BI Server', 'Redshift', 'Amazon Redshift', 'GMV', 'Excel', 'AWS', 'Azure', 'Builder', 'MS SQL'}",{'MoM'},"{'automation', 'data modelling', 'Solo Learn'}"
Chaitra_M_CV.pdf,"{'Unigen Valley', 'Flash center', 'Putty', 'Unigen Heaven', 'FIT', 'Charger', 'Vulkan'}","{'CPU', 'User inputs', 'NVIDIA Graphics', 'Beagle analyzer', 'keyboard', 'Embedded controller', 'Graphics GAMING', 'chipsets', 'USB', 'Embedded Controller', 'BIOS', 'Peripherals management', 'AMD Radeon'}","{'UART', 'H,265', 'embedded', 'multi - threading', 'debugging', 'VP9', 'HDMI', 'API', 'Embedded hardware', 'Triaging', 'Media', 'Testing', 'UCSI', 'responsibility', 'USB', 'Gaming', 'I2C', 'Debug', 'software testing', 'Docking', 'Black box', 'DC', 'SPI', 'Sanity Testing', 'testing', 'Firmware', 'Sensors', 'K', 'H,264', 'Display', 'Multimedia', 'stress testing', 'Audio', 'Functional testing', 'DP', 'Debugging', 'Benchmarking', 'basic acceptance testing', 'Functional', 'Platform debug', 'Graphics'}"
Chetan_Resume-2.pdf,"{'Logic setup', 'trace view', 'I2C Analyzer', 'Acute Analyzer', 'Sample App', 'Putty', 'Phoenix', 'Psoc', 'PowerShell', 'Soc Watch', 'Trace view', 'HSD - ES', 'Total Phase Flash Centre', 'ETL Logs', 'Android studio', 'JMeter'}","{'Memory', 'Motherboard', 'Phase Data Centre', 'Processors', 'Pre - Silicon', 'CVF Drivers', 'PSS', 'Embedded Controller', 'BIOS', 'UEFI', 'EEPROM'}","{'UART', 'Regression', 'ETW', 'SDLC', 'Camera', 'Boot', 'ETL', 'camera', 'Sanity', 'FW', 'TBT', 'USB', 'Optane memory', 'Software Testing', 'Type - C', 'I2C', 'System Boot', 'STLC', 'Raid', 'ACE', 'Non - Functional', 'ACPI', 'Automation', 'Performance Testing', 'Sensor', 'Optane persistence memory', 'Functional', 'Human sensor'}"
AniketJadhav_7691237_-03_02-_1.pdf,"{'Visual Studio', 'AWS', 'Anaconda', 'Jupyter notebook'}",,"{'NumPy', 'Decision Trees', 'Term', 'Inverse Document Frequency', 'Seaborn', 'Machine learning', 'Stroke analysis System', 'feature engineering', 'AdaBoost', 'Pandas', 'Aniket Jadhav ', 'CNN', 'classification', 'Sci - py', 'pytessract', 'Bag of Words', 'machine learning', 'Stroke', 'Database', 'K - Mean Clustering', 'learn', 'Keras', 'OCR', 'Tensor Flow', 'Object Oriented Programming', 'Data Science', 'Deep Learning', 'KNN', 'NLTK', 'Logistic Regression', 'Machine Learning', 'Matplotlib', 'Lasso & Ridge  Regression', 'Random Forest', 'Probability', 'Scikit - learn', 'TF - IDF', 'Gradient  Boosting', 'ANN', 'Support vector machine', 'Word2vec', 'ML', 'Naive Bayes Classifier', 'Linear Regression', 'NLP', 'pdf2text', 'Data Analysis', 'deep leraning', 'Statistics'}"
CV_01022023d.pdf,"{'INCA', 'Tsim', 'MDA', 'Visual Studio', 'Jira'}",,"{'scrum', 'Agile', 'sprint planning', 'debugging', 'agile', 'Machine learning', 'automation testing', 'Data science', 'hardware testing', 'and calibration', 'Automation', 'automotive', 'diagnostic testing'}"
ANJALISINHA_7693779_-04_05-_1.pdf,"{'Google Cloud', 'AWS', 'Tableau', 'platform(GCP'}","{'Phase 2', 'Transformers'}","{'data mining', 'Regression', 'Decision Tree', 'Data Regression', 'Regular Expression', 'Hyperparameter tuning', 'feature engineering', 'Predictive Modelling', 'Pandas', 'AdaBoost', 'exploratory data analysis', 'ANNs', 'API', 'classification', 'machine learning', 'MS - Excel', 'predictive modeling', 'Scikitlearn', 'Data Science', 'Deep Learning', 'Linear  Regression', 'KNN', 'Notebook', 'NLTK', 'PyTorch', 'scikit - learn', 'GPS', 'Tabular', 'Predictive Data Modelling', 'Machine Learning', 'Regressor', 'Random Forest', 'Gradient Boosting', 'Forecasting', 'fast learning', 'TF - IDF', 'RNNs', 'recurrent neural networks', 'gradient boosting', 'ML', 'EDA', 'NB Classifier', 'Oracle', 'LSTM', 'Advanced Regression Techniques', 'Linear Regression', 'NLP', 'SciPy', 'data engineering', 'networks', 'Data Scientist', 'deep learning'}"
ChetanaNarkhede_Resume.pdf,"{'Git', 'Sagemaker', 'GitHub', 'Notebook', 'AWS', 'Version Control system', 'S3', 'EC2'}","{'Arduino - uno', 'SMD'}","{'NumPy', 'Tensorflow', 'TTest', 'Regression', 'Web Services', 'Decision Tree', 'Ada Boost', 'TFIDF', 'Pandas', 'CNN', 'BOW', 'P - Value', 'Random  Forest', 'classification', 'DSA', 'Databases', 'SVM', 'Wrapper', 'RDBMS', 'Z - Test', 'machine learning', 'Hypothesis Testing', 'Info - Gain Test', 'gensim', 'Kmeans Clustering', 'langdetect', 'Embedded Methods', 'statistics', 'Deep Learning', 'KNN', 'Back Propagation', 'NLTK', 'Natural Language Processing', 'word2vec', 'Square Test', 'Filter', 'sent2vec', 'keypharse ', 'OOPS', 'Gradient Descent', 'Bayesian', 'ANNOVA', 'Ridge & Lasso Regression', 'Machine Learning', 'Matplotlib', 'Transfer Learning', 'Probability', 'APIs', 'Scikit - learn', 'AI', 'nltk', 'ANN', 'Data Structures', 'googletrans', 'ML', 'DNN', 'Flask', 'Neural Networks', 'textblob', 'doc2vec', 'Linear Regression', 'Machine', 'Exploratory Data Analysis', 'Data  Structures & Algorithms', 'seaborn', 'Naïve Bayes Classifier', 'NLP', 'spacy', 'Data Scientist', 'cloud', 'Data Analysis', 'Statistics'}"
CV AUTOSAR Technical Architect Narayan Pawar_11_6.pdf,"{'SVN', 'DMM', 'VT Studio', 'Davinci configurator', 'Vector Jenny', 'PC Lint', 'IBM Doors', 'CANoe', 'BMS Creator', 'EBTresos', 'I - Jet', 'DSO', 'Vector Cast', 'PTC MKS Windchill', 'Vetor Cast', 'IBMDOORs', 'CANTATA', 'Davinci Configurator', 'Jenkins', 'LDRA', 'JIRA', 'J - link', 'E2 Studio', 'Keil', 'CANalyzer', 'Oscilloscope', 'IAR Embedded Workbench', 'STLink V2', 'Git', 'EB Tresos', 'Logic Analyzer'}","{'Cypress Traveo', 'Renesas', 'Infineon AURIX', 'Raspberry Pi', 'Microcontroller', 'Automotive'}","{'SWRS),Project Planning', 'SRUM', 'System Development Life Cycle', 'CAN', 'Battery Management System(BMS', 'SRS', 'embedded system', 'UML', 'AUTOSAR', 'ECU', 'UDS', 'Sprint planning', 'I2C', 'Automotive', 'Unit & Integration Testing', 'Agile', 'CANFD', 'Unit Testing', 'SOW', 'SPI', 'unit testing', 'Embedded System', 'Design Engineering', 'Debugging', 'LIN', 'Unit testing', 'Embedded Systems'}"
chandanDotshivamallu@gmailDotcom.pdf,"{'DMM', 'Oscilloscope', 'JIRA', 'Analyzer', 'GDB', 'Logic', 'GCC', 'GIT', 'Trace', 'MSone Note', 'JTAG', 'Notepad++', 'VIM'}","{'USB', 'Microprocessors ARM based SOCs', 'ARM'}","{'Testing', 'Keil µVision v', 'IP', 'Post - Silicon IP', 'debugging', 'Micro Vision', 'USB', 'SPI', 'NACK', 'JTAG', 'CAN', 'Debugging', 'Firmware', 'PCIe', 'Hardware Schematics', 'Post SiliconValidation', 'I2C'}"
AnilDattatrayaPatil_7692189_-02_10-_1.pdf,"{'Skipgram', 'Anaconda', 'Jupyter notebook', 'Github', 'AWS', 'Visual Studio'}",,"{'NumPy', 'Decision Trees', 'predictive model', 'Seaborn', 'Word2Vec', 'TFIDF', 'AdaBoost', 'Pandas', 'N - Gram', 'CNN', 'non - technical', 'Wordcloud', 'Sci - py', 'machine', 'pytessract', 'machine learning', 'K - Means Clustering', 'predictive modeling', 'Scikitlearn', 'OCR', 'Deep Learning', 'Bayes Classifier', 'KNN', 'Natural Language Processing', 'PCA', 'NLTK', 'CountVectorizer', 'Lasso & Ridge Regression', 'social media', 'Logistic Regression', 'Machine Learning', 'Near Lokmanya', 'Naive', 'Matplotlib', 'Random Forest', 'Gradient Boosting', 'Object Oriented  Programming(OOPs', 'ANN', 'ML', 'CBOW', 'RAKE', 'MACHINE LEARNING', 'Linear Regression', 'NLP', 'pdf2text', 'ANIL'}"
ANIKETJADHAV_7692419_-03_04-_1.pdf,"{'Hangout', 'Teams', 'Amazon Web Services', 'Skype', 'WebEx', 'Jira'}",,"{'Naïve Bayes classifier', 'Seaborn', 'Decision Tree', 'Ridge and Lasso regression', 'Ada Boost', 'Pandas', 'machine learning', 'data modeling', 'Matplot lib', 'K - Means Cluster', 'Logistic regression', 'Agile', 'Machine Learning', 'Scikit learn', 'Random Forest', 'Gradient Boost', 'Numpy', 'TF - IDF', 'Gradient Decent', 'Word 2 vec', 'bag of words', 'Cloud', 'Responsibilities:\uf0fc', 'Data Base', 'K - Nearest classifier', 'ML', 'MACHINE LEARNING', 'Linear Regression', 'data science', 'DATA SCIENCE', 'object oriented programming'}"
CV.pdf,"{'QTP', 'ADO', 'Simple Storage Service', 'Postman', 'IBM Rational Rhapsody', 'Selenium', 'Azure DevOps', 'Visual Studio', 'HP UFT', 'AWS', 'Confluence', 'Amazon Web Services', 'UFT', 'Chromium', 'S3', 'Edge', 'Jira'}",{'router'},"{'regression test', 'Telecommunications', 'API testing', 'Robotic Process Automation', 'Web Development', 'MVP', 'Networking', 'QA', 'Data Science', 'sanity testing', 'automation', 'DBMS', 'software testing', 'STLC', 'Machine Learning', 'CLI', 'GUI testing', 'regression testing', 'Automation', 'RPA', 'manual testing', 'App Development', 'Embedded Systems', 'Backend Testing Tool'}"
chandrasekhar_Resume.docx,"{'JIRA', 'GITlab', 'Putty', 'GIT', 'IOMeter', 'Testtrack', 'SC loader', 'Bit bucket'}","{'384 drives', 'RAID controller creating RAID levels', 'FAN', 'Drives', 'SSD', 'MC mode', 'HDD', 'BMC', 'IVO', 'SATA', 'PSU', 'BIOS', 'SATA Drives', 'FIO'}","{'ISCSI', 'SSD', 'scrub', 'SCRUM', 'SAN', 'SATA', 'OEM', 'Test track', 'PSU', 'DAS', 'R1', 'CPLD', 'FT', 'VMware', 'QA', 'NVMe', 'chassis', 'iSCSI', 'AGILE', 'storcli', 'R6', 'Trust', 'DRS', 'Dothil Product Validation', 'DUU', 'Testing-4', 'hdparm', 'PCM', 'Automation', 'FC', 'R10', 'Storcli', 'HA', 'HBA', 'R50', 'SAS', 'IOPS', 'PyCharm', 'SSH', 'NAS'}"
AniketSingh_7690977_-04_06-_1.docx,{'Tableau'},,"{'NumPy', 'predictive model', 'MFS', 'Decision Tree', 'Machine learning', 'Big Data', 'Pandas', 'Time series', 'machine learning', 'PySpark', 'Data Science', 'Natural Language Processing', 'P2P', 'Notebook', 'DATA TRAINED', 'Logistic Regression', 'Machine Learning', 'Iterative Imputer', 'percentile', 'EDA', 'data - mining', 'data science', 'NLP', 'Data Scientist', 'deep learning', 'Database Data Modeling'}"
booradayaswanth@gmailDotcom.docx,"{'JIRA', 'Bitbucket', 'web automation', 'Workbench', 'ASE', 'STLCs', 'Wireshark', 'and Audit', 'JAMA', 'Confluence', 'Jama', 'QA Complete', 'Audit Trail', 'Test Complete'}","{'Reclosers', 'Switch', 'Regulators'}","{'exploratory testing', 'Regression', 'sprint planning', 'Quality Assurance', 'Manual testing', 'Form-7', 'Metering', 'QA testing', 'Testing', 'IP', 'white box testing', 'QA', 'IEC870 - 5 - 101', 'TCP', 'Automation testing', 'automation', 'Software Testing', 'black box', 'Sprint and Agile', 'product testing', 'Agile', 'UDP', 'Scrum', 'testing', 'Bugzilla', 'sprint review', 'waterfall', 'firmware', 'DNP', 'load', 'Embedded testing', 'Substation protocols', 'Sanity', 'sectionalizer mechanisms'}"
DAMINI_JIMAN.docx,"{'CMSynergy', 'SCENARIOCONVERTER', 'DOORS', 'Doors', 'SCADE', 'ADEPAUTO'}",,"{'UART', 'Landing Gear System', 'database', 'V & V - Model', 'SIMULINK', 'SDLC', 'integration testing', 'Model based testing', 'Embedded', 'CAN', 'SPI', 'nose landing gear', 'landing gear functions', 'Unit testing', 'main landing gears'}"
