File Name,Tools,Hardwares,Domains
AniketJadhav_7691237_-03_02-_1.pdf,"{'Anaconda', 'Visual Studio', 'Jupyter notebook', 'AWS'}",,"{'Tensor Flow', 'deep leraning', 'Lasso & Ridge  Regression', 'classification', 'Linear Regression', 'NLP', 'NumPy', 'Machine learning', 'ANN', 'CNN', 'Database', 'learn', 'KNN', 'Stroke', 'Deep Learning', 'Bag of Words', 'machine learning', 'ML', 'Random Forest', 'Support vector machine', 'Inverse Document Frequency', 'K - Mean Clustering', 'Matplotlib', 'Data Science', 'Aniket Jadhav ', 'Gradient  Boosting', 'pytessract', 'Machine Learning', 'Decision Trees', 'Seaborn', 'Word2vec', 'Scikit - learn', 'Data Analysis', 'OCR', 'Sci - py', 'Naive Bayes Classifier', 'NLTK', 'Probability', 'Statistics', 'Logistic Regression', 'Term', 'feature engineering', 'AdaBoost', 'pdf2text', 'Stroke analysis System', 'TF - IDF', 'Object Oriented Programming', 'Pandas', 'Keras'}"
ANJALISINHA_7693779_-04_05-_1.pdf,"{'platform(GCP', 'Tableau', 'AWS', 'Google Cloud'}","{'Transformers', 'Phase 2'}","{'LSTM', 'classification', 'Linear Regression', 'NLP', 'EDA', 'fast learning', 'KNN', 'Regular Expression', 'Deep Learning', 'MS - Excel', 'exploratory data analysis', 'Tabular', 'NB Classifier', 'machine learning', 'API', 'ML', 'Scikitlearn', 'Random Forest', 'ANNs', 'Predictive Data Modelling', 'Notebook', 'data engineering', 'Data Science', 'Regression', 'GPS', 'networks', 'Predictive Modelling', 'deep learning', 'RNNs', 'Regressor', 'Gradient Boosting', 'Forecasting', 'gradient boosting', 'Machine Learning', 'PyTorch', 'Hyperparameter tuning', 'predictive modeling', 'Decision Tree', 'Linear  Regression', 'Advanced Regression Techniques', 'NLTK', 'scikit - learn', 'Data Regression', 'feature engineering', 'Data Scientist', 'AdaBoost', 'data mining', 'recurrent neural networks', 'Oracle', 'TF - IDF', 'SciPy', 'Pandas'}"
ANIKETJADHAV_7692419_-03_04-_1.pdf,"{'Amazon Web Services', 'Hangout', 'WebEx', 'Teams', 'Skype', 'Jira'}",,"{'data science', 'Ada Boost', 'Linear Regression', 'MACHINE LEARNING', 'Gradient Decent', 'machine learning', 'Responsibilities:\uf0fc', 'ML', 'Word 2 vec', 'Random Forest', 'Matplot lib', 'bag of words', 'Logistic regression', 'Agile', 'DATA SCIENCE', 'Ridge and Lasso regression', 'Machine Learning', 'Seaborn', 'Pandas', 'Numpy', 'Decision Tree', 'Gradient Boost', 'Data Base', 'data modeling', 'TF - IDF', 'object oriented programming', 'Cloud', 'Naïve Bayes classifier', 'K - Means Cluster', 'Scikit learn', 'K - Nearest classifier'}"
AnimeshChoudhury_7691361_-02_04-_1.pdf,"{'GitHub', 'Count Vectorizer'}",,"{'Machine', 'ANN', 'NLP', '- Neural Networks', 'CNN', 'TextBlob', 'Social Media', 'Deep Learning', 'Linear & Logistics Reg', 'Tensorﬂow', 'TFIDF', 'sent2vec', 'doc2vec', 'Random Forest', 'Matplotlib', 'OOPs', 'K Means Clustering', 'Machine Learning', 'Seaborn', 'Data Analysis', ""K Nearest Neighbor 's"", 'Decision Tree', 'Numpy', 'NLTK', 'Git', 'data mining', 'word2vec', 'Pandas'}"
CV.pdf,"{'UFT', 'Visual Studio', 'Chromium', 'Azure DevOps', 'Edge', 'AWS', 'Postman', 'Confluence', 'Amazon Web Services', 'S3', 'HP UFT', 'Jira', 'Selenium', 'IBM Rational Rhapsody', 'Simple Storage Service', 'ADO', 'QTP'}",{'router'},"{'API testing', 'manual testing', 'Robotic Process Automation', 'software testing', 'MVP', 'regression testing', 'CLI', 'STLC', 'DBMS', 'Networking', 'Telecommunications', 'Embedded Systems', 'GUI testing', 'sanity testing', 'Web Development', 'Data Science', 'QA', 'Machine Learning', 'Automation', 'automation', 'Backend Testing Tool', 'App Development', 'regression test', 'RPA'}"
AnjuYadav_7694331_-03_07-_1.pdf,"{'GMV', 'Power BI Server', 'Azure', 'Amazon Redshift', 'PG', 'AWS', 'Tableau', 'Excel', 'MS SQL', 'Power BI cloud', 'AOV', 'Builder', 'Athena', 'Power BI', 'QC', 'Zoho', 'Redshift', 'GitHub', 'MS - Excel'}",{'MoM'},"{'data modelling', 'Solo Learn', 'automation'}"
CV_01022023d.pdf,"{'Visual Studio', 'Tsim', 'INCA', 'MDA', 'Jira'}",,"{'Agile', 'automotive', 'debugging', 'and calibration', 'diagnostic testing', 'Data science', 'Machine learning', 'sprint planning', 'agile', 'automation testing', 'Automation', 'hardware testing', 'scrum'}"
chandanDotshivamallu@gmailDotcom.pdf,"{'Notepad++', 'GIT', 'Oscilloscope', 'MSone Note', 'VIM', 'GDB', 'Trace', 'Analyzer', 'DMM', 'GCC', 'JIRA', 'JTAG', 'Logic'}","{'USB', 'ARM', 'Microprocessors ARM based SOCs'}","{'Post - Silicon IP', 'Keil µVision v', 'Firmware', 'Debugging', 'Post SiliconValidation', 'debugging', 'Hardware Schematics', 'Testing', 'USB', 'IP', 'Micro Vision', 'PCIe', 'JTAG', 'NACK', 'I2C', 'CAN', 'SPI'}"
Chetan_Resume-2.pdf,"{'Phoenix', 'JMeter', 'Logic setup', 'Trace view', 'PowerShell', 'Putty', 'Sample App', 'Acute Analyzer', 'trace view', 'Total Phase Flash Centre', 'Psoc', 'Android studio', 'I2C Analyzer', 'HSD - ES', 'ETL Logs', 'Soc Watch'}","{'CVF Drivers', 'Pre - Silicon', 'PSS', 'EEPROM', 'Motherboard', 'Processors', 'Memory', 'Phase Data Centre', 'UEFI', 'Embedded Controller', 'BIOS'}","{'Software Testing', 'UART', 'ACPI', 'I2C', 'camera', 'Functional', 'Non - Functional', 'STLC', 'Human sensor', 'Camera', 'TBT', 'SDLC', 'Performance Testing', 'Raid', 'ETW', 'Sanity', 'ACE', 'Regression', 'Automation', 'System Boot', 'Optane persistence memory', 'ETL', 'Sensor', 'Type - C', 'Boot', 'USB', 'Optane memory', 'FW'}"
Chaitra_M_CV.pdf,"{'Charger', 'FIT', 'Putty', 'Unigen Valley', 'Flash center', 'Vulkan', 'Unigen Heaven'}","{'Graphics GAMING', 'keyboard', 'CPU', 'USB', 'AMD Radeon', 'Peripherals management', 'Beagle analyzer', 'chipsets', 'NVIDIA Graphics', 'User inputs', 'Embedded controller', 'Embedded Controller', 'BIOS'}","{'multi - threading', 'H,265', 'Platform debug', 'Display', 'Audio', 'Multimedia', 'Triaging', 'software testing', 'embedded', 'Media', 'UART', 'Functional testing', 'I2C', 'DC', 'Functional', 'Docking', 'API', 'Black box', 'Benchmarking', 'DP', 'Gaming', 'Sensors', 'responsibility', 'HDMI', 'basic acceptance testing', 'SPI', 'Debugging', 'Firmware', 'K', 'Embedded hardware', 'Graphics', 'H,264', 'stress testing', 'debugging', 'testing', 'Testing', 'USB', 'Debug', 'UCSI', 'Sanity Testing', 'VP9'}"
AnithaRanganathan_7695033_-09_00-_1.pdf,"{'Indira', 'Tableau', 'origin'}",{'Receivables'},"{'LSTM', 'ANN', 'NLP', 'CNN', 'predictive', 'KNN', 'Deep Learning', 'Data Analytics', 'Scikit Learn', 'SVM', 'machine learning', 'API', 'ML', 'Artiﬁcial Intelligence', 'RNN', 'Random Forest', 'Natural Language Processing', 'UI', 'Matplotlib', 'Data Science', 'database', 'OpenCV', 'Machine Learning', 'Seaborn', 'AI', 'Decision Tree', 'Numpy', 'Tf - IDF Vectorization', 'BERT', 'Reinforcement Learning', 'Logistic Regression', 'Data Scientist', 'Pandas'}"
venkatramanaresume.pdf,"{'FAR', 'Clear', 'Xplorer', 'GSB', 'ADB', 'Flash Magic'}","{'8051', 'MTK - Series', 'Qualcomm - series', 'ARM', 'chipsets', 'Exynos5'}","{'logcat', 'Cloning', 'UART', 'I2C', 'Firmware Loading', 'RWR', 'Embedded', 'Kernel', 'logs', 'Firmware Validation', 'SPI', 'Debugging', 'Booting', 'cloning', 'failures logs', 'Automation', 'debugging', 'testing', 'Error logs'}"
ChetanaNarkhede_Resume.pdf,"{'Sagemaker', 'Version Control system', 'AWS', 'Git', 'S3', 'EC2', 'GitHub', 'Notebook'}","{'Arduino - uno', 'SMD'}","{'Square Test', 'nltk', 'Machine', 'Ada Boost', 'Naïve Bayes Classifier', 'Linear Regression', 'NumPy', 'seaborn', 'classification', 'ANN', 'CNN', 'NLP', 'keypharse ', 'KNN', 'BOW', 'Deep Learning', 'Databases', 'TTest', 'SVM', 'Z - Test', 'machine learning', 'Bayesian', 'ML', 'Data  Structures & Algorithms', 'TFIDF', 'Exploratory Data Analysis', 'sent2vec', 'doc2vec', 'textblob', 'APIs', 'Natural Language Processing', 'Flask', 'Wrapper', 'Filter', 'ANNOVA', 'Tensorflow', 'Matplotlib', 'Regression', 'Kmeans Clustering', 'P - Value', 'Back Propagation', 'Gradient Descent', 'Machine Learning', 'AI', 'Random  Forest', 'Scikit - learn', 'Ridge & Lasso Regression', 'Data Analysis', 'Neural Networks', 'word2vec', 'Decision Tree', 'OOPS', 'RDBMS', 'Embedded Methods', 'statistics', 'DSA', 'Web Services', 'gensim', 'Data Structures', 'cloud', 'NLTK', 'Info - Gain Test', 'Probability', 'Transfer Learning', 'Statistics', 'langdetect', 'Data Scientist', 'spacy', 'googletrans', 'Hypothesis Testing', 'DNN', 'Pandas'}"
CV AUTOSAR Technical Architect Narayan Pawar_11_6.pdf,"{'PC Lint', 'Oscilloscope', 'Vector Cast', 'CANoe', 'IBMDOORs', 'IAR Embedded Workbench', 'EBTresos', 'Keil', 'J - link', 'STLink V2', 'PTC MKS Windchill', 'IBM Doors', 'Vetor Cast', 'Vector Jenny', 'E2 Studio', 'LDRA', 'CANalyzer', 'VT Studio', 'CANTATA', 'I - Jet', 'Davinci configurator', 'JIRA', 'SVN', 'BMS Creator', 'Davinci Configurator', 'Git', 'DMM', 'DSO', 'EB Tresos', 'Logic Analyzer', 'Jenkins'}","{'Cypress Traveo', 'Raspberry Pi', 'Microcontroller', 'Renesas', 'Infineon AURIX', 'Automotive'}","{'Unit testing', 'Unit Testing', 'I2C', 'SWRS),Project Planning', 'SRUM', 'CAN', 'UML', 'CANFD', 'Embedded Systems', 'ECU', 'SOW', 'Battery Management System(BMS', 'Agile', 'SPI', 'Debugging', 'LIN', 'Unit & Integration Testing', 'System Development Life Cycle', 'SRS', 'UDS', 'unit testing', 'Embedded System', 'Design Engineering', 'embedded system', 'AUTOSAR', 'Sprint planning', 'Automotive'}"
AnilDattatrayaPatil_7692189_-02_10-_1.pdf,"{'Anaconda', 'Visual Studio', 'AWS', 'Jupyter notebook', 'Github', 'Skipgram'}",,"{'predictive model', 'N - Gram', 'Word2Vec', 'Linear Regression', 'NLP', 'MACHINE LEARNING', 'ANN', 'CNN', 'NumPy', 'KNN', 'Deep Learning', 'CountVectorizer', 'Bayes Classifier', 'machine learning', 'Naive', 'ML', 'TFIDF', 'Near Lokmanya', 'Scikitlearn', 'social media', 'Random Forest', 'Natural Language Processing', 'non - technical', 'CBOW', 'Matplotlib', 'machine', 'K - Means Clustering', 'Object Oriented  Programming(OOPs', 'Gradient Boosting', 'RAKE', 'Machine Learning', 'Decision Trees', 'Seaborn', 'Lasso & Ridge Regression', 'pytessract', 'predictive modeling', 'OCR', 'ANIL', 'Wordcloud', 'PCA', 'NLTK', 'Sci - py', 'Logistic Regression', 'AdaBoost', 'pdf2text', 'Pandas'}"
booradayaswanth@gmailDotcom.docx,"{'Bitbucket', 'and Audit', 'Wireshark', 'Confluence', 'Test Complete', 'QA Complete', 'Workbench', 'STLCs', 'JIRA', 'web automation', 'JAMA', 'Audit Trail', 'ASE', 'Jama'}","{'Switch', 'Regulators', 'Reclosers'}","{'waterfall', 'TCP', 'Metering', 'firmware', 'Automation testing', 'load', 'Software Testing', 'Quality Assurance', 'sprint review', 'Manual testing', 'Bugzilla', 'UDP', 'sectionalizer mechanisms', 'DNP', 'QA testing', 'exploratory testing', 'Agile', 'Sanity', 'Regression', 'Scrum', 'black box', 'QA', 'product testing', 'automation', 'Sprint and Agile', 'testing', 'Testing', 'Form-7', 'IP', 'sprint planning', 'IEC870 - 5 - 101', 'white box testing', 'Embedded testing', 'Substation protocols'}"
chandrasekhar_Resume.docx,"{'GIT', 'Putty', 'SC loader', 'GITlab', 'IOMeter', 'JIRA', 'Bit bucket', 'Testtrack'}","{'RAID controller creating RAID levels', 'SSD', 'FIO', 'FAN', 'PSU', 'BMC', 'SATA Drives', 'IVO', 'SATA', 'HDD', 'Drives', 'MC mode', '384 drives', 'BIOS'}","{'R10', 'R6', 'SCRUM', 'Dothil Product Validation', 'SAS', 'R50', 'NVMe', 'DUU', 'NAS', 'Testing-4', 'OEM', 'storcli', 'hdparm', 'VMware', 'IOPS', 'PSU', 'SATA', 'SAN', 'HA', 'R1', 'DRS', 'SSD', 'ISCSI', 'FT', 'QA', 'HBA', 'Automation', 'DAS', 'Test track', 'Trust', 'CPLD', 'chassis', 'scrub', 'SSH', 'PCM', 'FC', 'AGILE', 'Storcli', 'iSCSI', 'PyCharm'}"
AniketSingh_7690977_-04_06-_1.docx,{'Tableau'},,"{'predictive model', 'Database Data Modeling', 'data science', 'NumPy', 'NLP', 'PySpark', 'Machine learning', 'EDA', 'Big Data', 'DATA TRAINED', 'Time series', 'machine learning', 'Natural Language Processing', 'P2P', 'Notebook', 'Iterative Imputer', 'Data Science', 'deep learning', 'Machine Learning', 'Decision Tree', 'MFS', 'data - mining', 'Logistic Regression', 'Data Scientist', 'percentile', 'Pandas'}"
DAMINI_JIMAN.docx,"{'Doors', 'SCENARIOCONVERTER', 'CMSynergy', 'ADEPAUTO', 'SCADE', 'DOORS'}",,"{'landing gear functions', 'Model based testing', 'Landing Gear System', 'database', 'integration testing', 'SIMULINK', 'Embedded', 'Unit testing', 'SDLC', 'UART', 'main landing gears', 'nose landing gear', 'V & V - Model', 'CAN', 'SPI'}"
