{
  "lang":"en",
  "name":"pipeline",
  "version":"0.0.0",
  "spacy_version":">=3.5.2,<3.6.0",
  "description":"",
  "author":"",
  "email":"",
  "url":"",
  "license":"",
  "spacy_git_version":"Unknown",
  "vectors":{
    "width":0,
    "vectors":0,
    "keys":0,
    "name":null,
    "mode":"default"
  },
  "labels":{
    "tok2vec":[

    ],
    "ner":[
      "DOMAIN",
      "HARDWARE",
      "TOOL"
    ]
  },
  "pipeline":[
    "tok2vec",
    "ner"
  ],
  "components":[
    "tok2vec",
    "ner"
  ],
  "disabled":[

  ],
  "performance":{
    "ents_f":0.9819047619,
    "ents_p":0.9763257576,
    "ents_r":0.9875478927,
    "ents_per_type":{
      "TOOL":{
        "p":0.9903381643,
        "r":0.9832134293,
        "f":0.9867629362
      },
      "DOMAIN":{
        "p":0.9689393939,
        "r":0.9914728682,
        "f":0.9800766284
      },
      "HARDWARE":{
        "p":0.9824561404,
        "r":0.9739130435,
        "f":0.9781659389
      }
    },
    "tok2vec_loss":321.0678847375,
    "ner_loss":879.4682975475
  }
}