{
  "lang":"en",
  "name":"pipeline",
  "version":"0.0.0",
  "spacy_version":">=3.5.2,<3.6.0",
  "description":"",
  "author":"",
  "email":"",
  "url":"",
  "license":"",
  "spacy_git_version":"Unknown",
  "vectors":{
    "width":0,
    "vectors":0,
    "keys":0,
    "name":null,
    "mode":"default"
  },
  "labels":{
    "tok2vec":[

    ],
    "ner":[
      "OS",
      "PROGRAMMING_LANGUAGE",
      "RTOS"
    ]
  },
  "pipeline":[
    "tok2vec",
    "ner"
  ],
  "components":[
    "tok2vec",
    "ner"
  ],
  "disabled":[

  ],
  "performance":{
    "ents_f":0.9918845807,
    "ents_p":0.9972801451,
    "ents_r":0.9865470852,
    "ents_per_type":{
      "OS":{
        "p":0.9848484848,
        "r":0.9848484848,
        "f":0.9848484848
      },
      "PROGRAMMING_LANGUAGE":{
        "p":1.0,
        "r":0.9868131868,
        "f":0.9933628319
      },
      "RTOS":{
        "p":0.9863013699,
        "r":0.9863013699,
        "f":0.9863013699
      }
    },
    "tok2vec_loss":2156.0938157099,
    "ner_loss":179.701017007
  }
}