File Name,PROGRAMMING_LANGUAGE,OS,RTOS
AnithaRanganathan_7695033_-09_00-_1.pdf,"['C#', 'SQL', 'Flask', 'Python', 'SQL Server', 'ASP.NET']",{'Windows'},
AnimeshChoudhury_7691361_-02_04-_1.pdf,"['MongoDB', 'Python']",,
venkatramanaresume.pdf,"['Shell', 'Python Scripting', 'Python']","{'Windows', 'Android  PROJECT', 'Linux'}",
AnjuYadav_7694331_-03_07-_1.pdf,"['MySQL', 'SQL Server', 'SQL']",{'android'},
Chaitra_M_CV.pdf,[],{'windows'},
Chetan_Resume-2.pdf,['Python'],"{'windows', 'Linux'}",
AniketJadhav_7691237_-03_02-_1.pdf,"['SQL', 'Flask', 'Python', 'MySQL']",,
CV_01022023d.pdf,"['C', 'Robot Framework', 'SQL', 'Python']",,
ANJALISINHA_7693779_-04_05-_1.pdf,"['Flask', 'SQL', 'Python', 'MySQL']",{'Linux'},
ChetanaNarkhede_Resume.pdf,"['REST APIs', 'Core Python', 'Flask', 'Python', 'DocumentDB', 'MongoDB', 'RESTAPI', 'MySQL']",,
CV AUTOSAR Technical Architect Narayan Pawar_11_6.pdf,"['Python Scripting', 'MISRAC', 'CAPL', 'Embedded C', 'C++']","{'Embedded Linux', 'BMW Operating ', 'Raspbean', 'Ubuntu'}",{'Free RTOS'}
chandanDotshivamallu@gmailDotcom.pdf,['C'],"{'Windows', 'Linux'}",
AnilDattatrayaPatil_7692189_-02_10-_1.pdf,"['SQL', 'Flask', 'Python', 'MongoDB', 'MySQL']",,
ANIKETJADHAV_7692419_-03_04-_1.pdf,"['SQL', 'Python', 'MySQL']","{'Windows', 'Linux'}",
CV.pdf,"['C', 'TestNG', 'HTML', 'Shell', 'JavaScript', 'Embedded C', 'Visual Basic', 'C#', 'Java', 'SQL', 'Python', 'C++', 'DynamoDB', 'SpecFlow', 'VB Scripting', 'Perl', 'JUnit', 'NoSQL', 'CSS']",{'Android'},
chandrasekhar_Resume.docx,['Python'],"{'Windows', 'ESXi', 'ESXI', 'windows', 'Linux'}",
AniketSingh_7690977_-04_06-_1.docx,"['SQL', 'Python']",,
booradayaswanth@gmailDotcom.docx,[],,
DAMINI_JIMAN.docx,"['Python Scripting', 'C', 'MATLAB', 'C++']",,
