{
  "lang":"en",
  "name":"pipeline",
  "version":"0.0.0",
  "spacy_version":">=3.5.2,<3.6.0",
  "description":"",
  "author":"",
  "email":"",
  "url":"",
  "license":"",
  "spacy_git_version":"Unknown",
  "vectors":{
    "width":0,
    "vectors":0,
    "keys":0,
    "name":null,
    "mode":"default"
  },
  "labels":{
    "tok2vec":[

    ],
    "ner":[
      "DOMAIN",
      "HARDWARE",
      "TOOL"
    ]
  },
  "pipeline":[
    "tok2vec",
    "ner"
  ],
  "components":[
    "tok2vec",
    "ner"
  ],
  "disabled":[

  ],
  "performance":{
    "ents_f":0.9821215733,
    "ents_p":0.9776934029,
    "ents_r":0.9865900383,
    "ents_per_type":{
      "TOOL":{
        "p":0.9825396825,
        "r":0.9896083133,
        "f":0.9860613301
      },
      "DOMAIN":{
        "p":0.9761904762,
        "r":0.9852713178,
        "f":0.9807098765
      },
      "HARDWARE":{
        "p":0.9714285714,
        "r":0.9855072464,
        "f":0.9784172662
      }
    },
    "tok2vec_loss":289.4265237203,
    "ner_loss":960.9652714776
  }
}